ST 558 Project 1
…
2. Convert the data into long format

long_data1 <- pivot_longer(selected_data1, cols = ends_with("D"), names_to = "Survey", values_to = "Enrollment Value")

3. Survey values

long_data1 |>
  # Creating Year variable that gets the year values from the Survey string
  mutate(Year = as.numeric(substr(Survey, start = 8, stop = 9))) |>
  # Adding the 1900 or 2000 to the yearvals variable to get the actual year and overwriting that variable
  mutate(Year = ifelse(Year > 25, Year + 1900, Year + 2000)) |>
  # Creating variable for the first 3 characters and 4 digits of the Survey string
  mutate(Measurement = substr(Survey, start = 1, stop = 7))

# A tibble: 31,980 × 6
   area_name     STCOU Survey     `Enrollment Value`  Year Measurement
   <chr>         <chr> <chr>                   <dbl> <dbl> <chr>      
 1 UNITED STATES 00000 EDU010187D           40024299  1987 EDU0101    
 2 UNITED STATES 00000 EDU010188D           39967624  1988 EDU0101    
 3 UNITED STATES 00000 EDU010189D           40317775  1989 EDU0101    
 4 UNITED STATES 00000 EDU010190D           40737600  1990 EDU0101    
 5 UNITED STATES 00000 EDU010191D           41385442  1991 EDU0101    
 6 UNITED STATES 00000 EDU010192D           42088151  1992 EDU0101    
 7 UNITED STATES 00000 EDU010193D           42724710  1993 EDU0101    
 8 UNITED STATES 00000 EDU010194D           43369917  1994 EDU0101    
 9 UNITED STATES 00000 EDU010195D           43993459  1995 EDU0101    
10 UNITED STATES 00000 EDU010196D           44715737  1996 EDU0101    
# ℹ 31,970 more rows
…
Survey_Function <- function(long_df) {
  long_df |>
  # Creating Year variable that gets the year values from the Survey string
  mutate(Year = as.numeric(substr(Survey, start = 8, stop = 9))) |>
  # Adding the 1900 or 2000 to the yearvals variable to get the actual year and overwriting that variable
  mutate(Year = ifelse(Year > 25, Year + 1900, Year + 2000)) |>
  # Creating variable for the first 3 characters and 4 digits of the Survey string
  mutate(Measurement = substr(Survey, start = 1, stop = 7))
}

Testing this Function

Survey_Function(long_data2)

# A tibble: 31,980 × 6
   area_name     STCOU Survey     `Enrollment Value`  Year Measurement
   <chr>         <chr> <chr>                   <dbl> <dbl> <chr>      
 1 UNITED STATES 00000 EDU010187D           40024299  1987 EDU0101    
 2 UNITED STATES 00000 EDU010188D           39967624  1988 EDU0101    
 3 UNITED STATES 00000 EDU010189D           40317775  1989 EDU0101    
 4 UNITED STATES 00000 EDU010190D           40737600  1990 EDU0101    
 5 UNITED STATES 00000 EDU010191D           41385442  1991 EDU0101    
 6 UNITED STATES 00000 EDU010192D           42088151  1992 EDU0101    
 7 UNITED STATES 00000 EDU010193D           42724710  1993 EDU0101    
 8 UNITED STATES 00000 EDU010194D           43369917  1994 EDU0101    
 9 UNITED STATES 00000 EDU010195D           43993459  1995 EDU0101    
10 UNITED STATES 00000 EDU010196D           44715737  1996 EDU0101    
# ℹ 31,970 more rows
