ST 558 Project 1
…
1. Only select the columns identified in the instructional document

We will select the area name, STCOU, and other columns that end with a “D”. we will also rename the Area_name variable.

# Name the tibble
selected_data1 <- data1 |>

# Select the respective columns
  select(Area_name, STCOU, ends_with("D")) |>

# Rename the Area_name variable
  rename(area_name = Area_name)
selected_data1

# A tibble: 3,198 × 12
   area_name     STCOU EDU010187D EDU010188D EDU010189D EDU010190D EDU010191D
   <chr>         <chr>      <dbl>      <dbl>      <dbl>      <dbl>      <dbl>
 1 UNITED STATES 00000   40024299   39967624   40317775   40737600   41385442
 2 ALABAMA       01000     733735     728234     730048     728252     725541
 3 Autauga, AL   01001       6829       6900       6920       6847       7008
 4 Baldwin, AL   01003      16417      16465      16799      17054      17479
 5 Barbour, AL   01005       5071       5098       5068       5156       5173
 6 Bibb, AL      01007       3557       3508       3571       3621       3652
 7 Blount, AL    01009       7319       7223       7205       7209       7155
 8 Bullock, AL   01011       2014       1980       1985       1983       1985
 9 Butler, AL    01013       4640       4582       4610       4591       4544
10 Calhoun, AL   01015      20939      20923      20907      20849      20768
# ℹ 3,188 more rows
# ℹ 5 more variables: EDU010192D <dbl>, EDU010193D <dbl>, EDU010194D <dbl>,
#   EDU010195D <dbl>, EDU010196D <dbl>

2. Convert the data into long format

We will now convert our dataset into a long format instead of the wide format.

long_data1 <- pivot_longer(selected_data1, cols = ends_with("D"), names_to = "Survey", values_to = "Enrollment Value")
long_data1

# A tibble: 31,980 × 4
   area_name     STCOU Survey     `Enrollment Value`
   <chr>         <chr> <chr>                   <dbl>
 1 UNITED STATES 00000 EDU010187D           40024299
 2 UNITED STATES 00000 EDU010188D           39967624
 3 UNITED STATES 00000 EDU010189D           40317775
 4 UNITED STATES 00000 EDU010190D           40737600
 5 UNITED STATES 00000 EDU010191D           41385442
 6 UNITED STATES 00000 EDU010192D           42088151
 7 UNITED STATES 00000 EDU010193D           42724710
 8 UNITED STATES 00000 EDU010194D           43369917
 9 UNITED STATES 00000 EDU010195D           43993459
10 UNITED STATES 00000 EDU010196D           44715737
# ℹ 31,970 more rows
…
Next, we will extract the measurement and year from the survey variable and add these as columns to our dataset.

long_data1_updated <- long_data1 |>
  
  # Extract the year from the 'Survey' column, covert to a number, and create a new 'Year' variable with these values
  mutate(Year = as.numeric(substr(Survey, start = 8, stop = 9))) |>
  
  # Convert the two digit year into a four digit year and overwrite the 'Year' column
  mutate(Year = ifelse(Year > 24, Year + 1900, Year + 2000)) |>
  
  # Extract the first 7 digits from the 'Survey' column and create a new 'Measurement' variable with these values
  mutate(Measurement = substr(Survey, start = 1, stop = 7))
long_data1_updated

# A tibble: 31,980 × 6
   area_name     STCOU Survey     `Enrollment Value`  Year Measurement
   <chr>         <chr> <chr>                   <dbl> <dbl> <chr>      
 1 UNITED STATES 00000 EDU010187D           40024299  1987 EDU0101    
 2 UNITED STATES 00000 EDU010188D           39967624  1988 EDU0101    
 3 UNITED STATES 00000 EDU010189D           40317775  1989 EDU0101    
 4 UNITED STATES 00000 EDU010190D           40737600  1990 EDU0101    
 5 UNITED STATES 00000 EDU010191D           41385442  1991 EDU0101    
 6 UNITED STATES 00000 EDU010192D           42088151  1992 EDU0101    
 7 UNITED STATES 00000 EDU010193D           42724710  1993 EDU0101    
 8 UNITED STATES 00000 EDU010194D           43369917  1994 EDU0101    
 9 UNITED STATES 00000 EDU010195D           43993459  1995 EDU0101    
10 UNITED STATES 00000 EDU010196D           44715737  1996 EDU0101    
# ℹ 31,970 more rows
…
# Create the county data set with only county level data
county_tibble <- long_data1_updated[county_indices, ]

# Add a class to the tibble called 'county'
class(county_tibble) <- c("county", class(county_tibble))

5. Create a new variable to describe the corresponding state in the county tibble

Here, we will create a State variable in the county dataset using the area_name variable we have.

county_tibble |>
  mutate(State = substr(area_name, start = nchar(area_name)-1, stop = nchar(area_name)))

# A tibble: 31,450 × 7
   area_name   STCOU Survey     `Enrollment Value`  Year Measurement State
   <chr>       <chr> <chr>                   <dbl> <dbl> <chr>       <chr>
 1 Autauga, AL 01001 EDU010187D               6829  1987 EDU0101     AL   
 2 Autauga, AL 01001 EDU010188D               6900  1988 EDU0101     AL   
 3 Autauga, AL 01001 EDU010189D               6920  1989 EDU0101     AL   
 4 Autauga, AL 01001 EDU010190D               6847  1990 EDU0101     AL   
 5 Autauga, AL 01001 EDU010191D               7008  1991 EDU0101     AL   
 6 Autauga, AL 01001 EDU010192D               7137  1992 EDU0101     AL   
 7 Autauga, AL 01001 EDU010193D               7152  1993 EDU0101     AL   
 8 Autauga, AL 01001 EDU010194D               7381  1994 EDU0101     AL   
 9 Autauga, AL 01001 EDU010195D               7568  1995 EDU0101     AL   
10 Autauga, AL 01001 EDU010196D               7834  1996 EDU0101     AL   
# ℹ 31,440 more rows
…
noncounty_tibble |>
  # Filtering out the duplicated entry
  filter(area_name != "District of Columbia") |>
  mutate(Division = ifelse(area_name %in% c("CONNECTICUT", "MAINE", "MASSACHUSETTS", "NEW HAMPSHIRE", "RHODE ISLAND", "VERMONT"), "Division 1 (New England)",
                           ifelse(area_name %in% c("NEW JERSEY", "NEW YORK", "PENNSYLVANIA"), "Division 2 (Middle Atlantic)",
                                  ifelse(area_name %in% c("ILLINOIS", "INDIANA", "MICHIGAN", "OHIO", "WISCONSIN"), "Division 3 (East North Central)",
                                         ifelse(area_name %in% c("IOWA", "KANSAS", "MINNESOTA", "MISSOURI", "NEBRASKA", "NORTH DAKOTA", "SOUTH DAKOTA"), "Division 4 (West North Central)",
                                                ifelse(area_name %in% c("DELAWARE", "FLORIDA", "GEORGIA", "MARYLAND", "NORTH CAROLINA", "SOUTH CAROLINA", "VIRGINIA", "DISTRICT OF COLUMBIA", "District of Columbia", "WEST VIRGINIA"), "Division 5 (South Atlantic)",
                                                       ifelse(area_name %in% c("ALABAMA", "KENTUCKY", "MISSISSIPPI", "TENNESSEE"), "Division 6 (East South Central)",
                                                              ifelse(area_name %in% c("ARKANSAS", "LOUISIANA", "OKLAHOMA", "TEXAS"), "Division 7 (West South Central)",
                                                                     ifelse(area_name %in% c("ARIZONA", "COLORADO", "IDAHO", "MONTANA", "NEVADA", "NEW MEXICO", "UTAH", "WYOMING"), "Division 8 (Mountain)",
                                                                            ifelse(area_name %in% c("ALASKA", "CALIFORNIA", "HAWAII", "OREGON", "WASHINGTON"), "Division 9 (Pacific)", "ERROR"))))))))))

# A tibble: 520 × 7
   area_name     STCOU Survey     `Enrollment Value`  Year Measurement Division
   <chr>         <chr> <chr>                   <dbl> <dbl> <chr>       <chr>   
 1 UNITED STATES 00000 EDU010187D           40024299  1987 EDU0101     ERROR   
 2 UNITED STATES 00000 EDU010188D           39967624  1988 EDU0101     ERROR   
 3 UNITED STATES 00000 EDU010189D           40317775  1989 EDU0101     ERROR   
 4 UNITED STATES 00000 EDU010190D           40737600  1990 EDU0101     ERROR   
 5 UNITED STATES 00000 EDU010191D           41385442  1991 EDU0101     ERROR   
 6 UNITED STATES 00000 EDU010192D           42088151  1992 EDU0101     ERROR   
 7 UNITED STATES 00000 EDU010193D           42724710  1993 EDU0101     ERROR   
 8 UNITED STATES 00000 EDU010194D           43369917  1994 EDU0101     ERROR   
 9 UNITED STATES 00000 EDU010195D           43993459  1995 EDU0101     ERROR   
10 UNITED STATES 00000 EDU010196D           44715737  1996 EDU0101     ERROR   
# ℹ 510 more rows
…
